[gd_scene load_steps=7 format=2]

[ext_resource path="res://assets/icons/game-icons.net/speaker.png" type="Texture" id=1]
[ext_resource path="res://Game.gd" type="Script" id=2]
[ext_resource path="res://assets/icons/game-icons.net/sound-on.png" type="Texture" id=3]
[ext_resource path="res://assets/sounds/ui/kenney/click.wav" type="AudioStream" id=4]
[ext_resource path="res://assets/music/cynicmusic/song18.ogg" type="AudioStream" id=5]
[ext_resource path="res://assets/fonts/menu_font.tres" type="DynamicFont" id=6]

[node name="Game" type="VBoxContainer"]
anchor_right = 1.0
anchor_bottom = 1.0
size_flags_horizontal = 3
size_flags_vertical = 3
script = ExtResource( 2 )
__meta__ = {
"_edit_use_anchors_": false
}

[node name="BackgroundMusic" type="AudioStreamPlayer" parent="."]
stream = ExtResource( 5 )

[node name="ClickSoundEffect" type="AudioStreamPlayer" parent="."]
stream = ExtResource( 4 )

[node name="BackgroundMusicButton" type="CheckButton" parent="."]
margin_right = 1600.0
margin_bottom = 498.0
size_flags_horizontal = 3
size_flags_vertical = 3
custom_fonts/font = ExtResource( 6 )
pressed = true
text = "MUSIC ON"
icon = ExtResource( 3 )
expand_icon = true

[node name="SoundEffectsButton" type="CheckButton" parent="."]
margin_top = 502.0
margin_right = 1600.0
margin_bottom = 1000.0
size_flags_horizontal = 3
size_flags_vertical = 3
custom_fonts/font = ExtResource( 6 )
pressed = true
text = "SOUND ON"
icon = ExtResource( 1 )
expand_icon = true
