[gd_resource type="DynamicFont" load_steps=2 format=2]

[ext_resource path="res://assets/fonts/Kenney Mini Square.ttf" type="DynamicFontData" id=1]

[resource]
size = 96
outline_size = 10
outline_color = Color( 0, 0, 0, 1 )
font_data = ExtResource( 1 )
